# Blender 4.0.2
# www.blender.org
mtllib candles_3d_5.mtl
g candle_Cube.007
v -0.222316 -0.500000 0.152901
v 0.053583 -0.500000 0.208080
v -0.222316 -0.278577 0.152901
v 0.053583 -0.278577 0.208080
v -0.222316 -0.500000 -0.067818
v -0.167136 -0.500000 0.208080
v -0.222316 -0.278577 -0.067818
v -0.167136 -0.278577 0.208080
v 0.053583 -0.500000 -0.122998
v 0.108763 -0.500000 0.152901
v 0.108763 -0.278577 0.152901
v 0.053583 -0.278577 -0.122998
v -0.167136 -0.500000 -0.122998
v 0.108763 -0.500000 -0.067818
v -0.167136 -0.278577 -0.122998
v 0.108763 -0.278577 -0.067818
v 0.053583 -0.278577 -0.067818
v -0.167136 -0.278577 -0.067818
v -0.167136 -0.500000 -0.067818
v 0.053583 -0.500000 -0.067818
v -0.167136 -0.278577 0.152901
v 0.053583 -0.278577 0.152901
v -0.167136 -0.500000 0.152901
v 0.053583 -0.500000 0.152901
v 0.053583 -0.323151 -0.067817
v -0.167136 -0.323151 -0.067817
v -0.167136 -0.323151 0.152902
v 0.053583 -0.323151 0.152902
v 0.171537 -0.500000 0.230397
v 0.411709 -0.500000 0.278430
v 0.171537 -0.161127 0.230397
v 0.411709 -0.161127 0.278430
v 0.171537 -0.500000 0.038259
v 0.219572 -0.500000 0.278430
v 0.171537 -0.161127 0.038259
v 0.219572 -0.161127 0.278430
v 0.411709 -0.500000 -0.009775
v 0.459744 -0.500000 0.230397
v 0.459744 -0.161127 0.230397
v 0.411709 -0.161127 -0.009775
v 0.219572 -0.500000 -0.009775
v 0.459744 -0.500000 0.038259
v 0.219572 -0.161127 -0.009775
v 0.459744 -0.161127 0.038259
v 0.411709 -0.161127 0.038259
v 0.219572 -0.161127 0.038259
v 0.219572 -0.500000 0.038259
v 0.411709 -0.500000 0.038259
v 0.219572 -0.161127 0.230397
v 0.411709 -0.161127 0.230397
v 0.219572 -0.500000 0.230397
v 0.411709 -0.500000 0.230397
v 0.411710 -0.205701 0.038259
v 0.219572 -0.205701 0.038259
v 0.219572 -0.205701 0.230397
v 0.411710 -0.205701 0.230397
v -0.453988 -0.500000 0.411796
v -0.271996 -0.500000 0.448194
v -0.453988 -0.062072 0.411796
v -0.271996 -0.062072 0.448194
v -0.453988 -0.500000 0.266202
v -0.417590 -0.500000 0.448194
v -0.453988 -0.062072 0.266202
v -0.417590 -0.062072 0.448194
v -0.271996 -0.500000 0.229804
v -0.235598 -0.500000 0.411796
v -0.235598 -0.062072 0.411796
v -0.271996 -0.062072 0.229804
v -0.417590 -0.500000 0.229804
v -0.235598 -0.500000 0.266202
v -0.417590 -0.062072 0.229804
v -0.235598 -0.062072 0.266202
v -0.271996 -0.062072 0.266202
v -0.417590 -0.062072 0.266202
v -0.417590 -0.500000 0.266202
v -0.271996 -0.500000 0.266202
v -0.417590 -0.062072 0.411796
v -0.271996 -0.062072 0.411796
v -0.417590 -0.500000 0.411796
v -0.271996 -0.500000 0.411796
v -0.271996 -0.106647 0.266203
v -0.417590 -0.106647 0.266203
v -0.417590 -0.106647 0.411796
v -0.271996 -0.106647 0.411796
v -0.424859 -0.500000 -0.184839
v -0.225283 -0.500000 -0.144924
v -0.424859 -0.153420 -0.184839
v -0.225283 -0.153420 -0.144924
v -0.424859 -0.500000 -0.344501
v -0.384944 -0.500000 -0.144924
v -0.424859 -0.153420 -0.344501
v -0.384944 -0.153420 -0.144924
v -0.225283 -0.500000 -0.384416
v -0.185367 -0.500000 -0.184839
v -0.185367 -0.153420 -0.184839
v -0.225283 -0.153420 -0.384416
v -0.384944 -0.500000 -0.384416
v -0.185367 -0.500000 -0.344501
v -0.384944 -0.153420 -0.384416
v -0.185367 -0.153420 -0.344501
v -0.225283 -0.153420 -0.344501
v -0.384944 -0.153420 -0.344501
v -0.384944 -0.500000 -0.344501
v -0.225283 -0.500000 -0.344501
v -0.384944 -0.153420 -0.184839
v -0.225283 -0.153420 -0.184839
v -0.384944 -0.500000 -0.184839
v -0.225283 -0.500000 -0.184839
v -0.225282 -0.197995 -0.344501
v -0.384943 -0.197995 -0.344501
v -0.384943 -0.197995 -0.184839
v -0.225282 -0.197995 -0.184839
v -0.016339 -0.500000 -0.238673
v 0.216941 -0.500000 -0.192018
v -0.016339 -0.232877 -0.238673
v 0.216941 -0.232877 -0.192018
v -0.016339 -0.500000 -0.425297
v 0.030317 -0.500000 -0.192018
v -0.016339 -0.232877 -0.425297
v 0.030317 -0.232877 -0.192018
v 0.216941 -0.500000 -0.471953
v 0.263597 -0.500000 -0.238673
v 0.263597 -0.232877 -0.238673
v 0.216941 -0.232877 -0.471953
v 0.030317 -0.500000 -0.471953
v 0.263597 -0.500000 -0.425297
v 0.030317 -0.232877 -0.471953
v 0.263597 -0.232877 -0.425297
v 0.216941 -0.232877 -0.425297
v 0.030317 -0.232877 -0.425297
v 0.030317 -0.500000 -0.425297
v 0.216941 -0.500000 -0.425297
v 0.030317 -0.232877 -0.238673
v 0.216941 -0.232877 -0.238673
v 0.030317 -0.500000 -0.238673
v 0.216941 -0.500000 -0.238673
v 0.216941 -0.277452 -0.425297
v 0.030317 -0.277452 -0.425297
v 0.030317 -0.277452 -0.238673
v 0.216941 -0.277452 -0.238673
vn -1.0000 -0.0000 -0.0000
vn -0.0000 -0.0000 -1.0000
vn 1.0000 -0.0000 -0.0000
vn -0.0000 -0.0000 1.0000
vn -0.0000 1.0000 -0.0000
vn -0.0000 -1.0000 -0.0000
vt 0.718750 0.708333
vt 0.718750 0.875000
vt 0.593750 0.875000
vt 0.593750 0.708333
vt 0.375000 0.875000
vt 0.343750 0.875000
vt 0.343750 0.708333
vt 0.375000 0.708333
vt 0.562500 0.708333
vt 0.562500 0.875000
vt 0.218750 0.875000
vt 0.218750 0.708333
vt 0.750000 0.875000
vt 0.750000 0.708333
vt 0.187500 0.708333
vt 0.187500 0.875000
vt 0.406250 0.083333
vt 0.406250 0.250000
vt 0.375000 0.250000
vt 0.375000 0.083333
vt 0.718750 0.916667
vt 0.593750 0.916667
vt 0.343750 0.916667
vt 0.218750 0.916667
vt 0.031250 0.708333
vt 0.031250 0.875000
vt 0.156250 0.875000
vt 0.156250 0.708333
vt 0.406250 0.875000
vt 0.406250 0.708333
vt 0.531250 0.875000
vt 0.531250 0.708333
vt 0.000000 0.875000
vt 0.000000 0.708333
vt 0.593750 0.250000
vt 0.593750 0.083333
vt 0.625000 0.083333
vt 0.625000 0.250000
vt 0.781250 0.083333
vt 0.781250 0.250000
vt 0.750000 0.250000
vt 0.750000 0.083333
vt 0.156250 0.916667
vt 0.031250 0.916667
vt 0.531250 0.916667
vt 0.406250 0.916667
vt 0.750000 0.291667
vt 0.625000 0.291667
vt 0.625000 0.041667
vt 0.750000 0.041667
vt 0.250000 0.291667
vt 0.375000 0.291667
vt 0.250000 0.250000
vt 0.218750 0.250000
vt 0.218750 0.083333
vt 0.250000 0.083333
vt 0.375000 0.041667
vt 0.250000 0.041667
vt 0.718750 0.625000
vt 0.593750 0.625000
vt 0.343750 0.625000
vt 0.375000 0.625000
vt 0.562500 0.625000
vt 0.218750 0.625000
vt 0.750000 0.625000
vt 0.187500 0.625000
vt 0.031250 0.625000
vt 0.156250 0.625000
vt 0.406250 0.625000
vt 0.531250 0.625000
vt 0.000000 0.625000
vt 0.593750 0.583333
vt 0.500000 0.916667
vt 0.500000 0.583333
vt 0.312500 0.916667
vt 0.281250 0.916667
vt 0.281250 0.583333
vt 0.312500 0.583333
vt 0.468750 0.583333
vt 0.468750 0.916667
vt 0.187500 0.916667
vt 0.187500 0.583333
vt 0.625000 0.916667
vt 0.625000 0.583333
vt 0.156250 0.583333
vt 0.562500 0.125000
vt 0.562500 0.250000
vt 0.531250 0.250000
vt 0.531250 0.125000
vt 0.593750 0.958333
vt 0.500000 0.958333
vt 0.281250 0.958333
vt 0.187500 0.958333
vt 0.125000 0.583333
vt 0.125000 0.916667
vt 0.031250 0.583333
vt 0.437500 0.916667
vt 0.437500 0.583333
vt -0.000000 0.916667
vt -0.000000 0.583333
vt 0.343750 0.583333
vt 0.437500 0.916667
vt 0.437500 0.583333
vt 0.593750 0.125000
vt 0.625000 0.125000
vt 0.750000 0.125000
vt 0.718750 0.250000
vt 0.718750 0.125000
vt 0.125000 0.958333
vt 0.031250 0.958333
vt 0.437500 0.958333
vt 0.343750 0.958333
vt 0.718750 0.291667
vt 0.718750 0.083333
vt 0.437500 0.291667
vt 0.531250 0.291667
vt 0.437500 0.250000
vt 0.406250 0.125000
vt 0.437500 0.125000
vt 0.531250 0.083333
vt 0.437500 0.083333
vt 0.281250 0.625000
vt 0.281250 0.875000
vt 0.625000 0.875000
vt 0.625000 0.625000
vt 0.500000 0.875000
vt 0.500000 0.625000
vt 0.312500 0.625000
vt 0.312500 0.875000
vt 0.468750 0.625000
vt 0.468750 0.875000
vt 0.125000 0.625000
vt 0.125000 0.875000
vt 0.437500 0.875000
vt 0.437500 0.625000
vt 0.031250 0.875000
vt -0.000000 0.875000
vt 0.437500 0.875000
vt 0.718750 0.666667
vt 0.593750 0.666667
vt 0.343750 0.666667
vt 0.375000 0.666667
vt 0.562500 0.666667
vt 0.218750 0.666667
vt 0.750000 0.666667
vt 0.187500 0.666667
vt 0.031250 0.666667
vt 0.156250 0.666667
vt 0.406250 0.666667
vt 0.531250 0.666667
vt 0.000000 0.666667
s 0
usemtl candle
f 1/1/1 3/2/1 7/3/1 5/4/1
f 17/5/2 16/6/2 14/7/2 20/8/2
f 5/9/2 7/10/2 18/3/2 19/4/2
f 14/7/3 16/6/3 11/11/3 10/12/3
f 3/13/4 1/14/4 23/1/4 21/2/4
f 24/15/4 10/12/4 11/11/4 22/16/4
f 22/17/1 17/18/1 25/19/1 28/20/1
f 7/3/5 3/2/5 21/21/5 18/22/5
f 17/23/5 22/24/5 11/11/5 16/6/5
f 2/25/4 4/26/4 8/27/4 6/28/4
f 18/29/1 15/5/1 13/8/1 19/30/1
f 6/15/1 8/16/1 21/27/1 23/28/1
f 13/30/2 15/29/2 12/31/2 9/32/2
f 4/33/3 2/34/3 24/25/3 22/26/3
f 20/32/3 9/9/3 12/10/3 17/31/3
f 13/35/6 9/36/6 20/37/6 19/38/6
f 2/39/6 6/40/6 23/41/6 24/42/6
f 21/43/5 8/27/5 4/26/5 22/44/5
f 17/45/5 12/31/5 15/29/5 18/46/5
f 1/47/6 5/48/6 19/38/6 23/41/6
f 24/41/6 23/38/6 19/37/6 20/42/6
f 14/49/6 10/50/6 24/42/6 20/37/6
f 17/51/4 18/52/4 26/19/4 25/53/4
f 18/54/3 21/55/3 27/56/3 26/53/3
f 21/57/2 22/58/2 28/56/2 27/20/2
f 26/20/5 27/19/5 28/53/5 25/56/5
f 29/59/1 31/2/1 35/3/1 33/60/1
f 45/5/2 44/6/2 42/61/2 48/62/2
f 33/63/2 35/10/2 46/3/2 47/60/2
f 42/61/3 44/6/3 39/11/3 38/64/3
f 31/13/4 29/65/4 51/59/4 49/2/4
f 52/66/4 38/64/4 39/11/4 50/16/4
f 50/17/1 45/18/1 53/19/1 56/20/1
f 35/3/5 31/2/5 49/21/5 46/22/5
f 45/23/5 50/24/5 39/11/5 44/6/5
f 30/67/4 32/26/4 36/27/4 34/68/4
f 46/29/1 43/5/1 41/62/1 47/69/1
f 34/66/1 36/16/1 49/27/1 51/68/1
f 41/69/2 43/29/2 40/31/2 37/70/2
f 32/33/3 30/71/3 52/67/3 50/26/3
f 48/70/3 37/63/3 40/10/3 45/31/3
f 41/35/6 37/36/6 48/37/6 47/38/6
f 30/39/6 34/40/6 51/41/6 52/42/6
f 49/43/5 36/27/5 32/26/5 50/44/5
f 45/45/5 40/31/5 43/29/5 46/46/5
f 29/47/6 33/48/6 47/38/6 51/41/6
f 52/41/6 51/38/6 47/37/6 48/42/6
f 42/49/6 38/50/6 52/42/6 48/37/6
f 45/51/4 46/52/4 54/19/4 53/53/4
f 46/54/3 49/55/3 55/56/3 54/53/3
f 49/57/2 50/58/2 56/56/2 55/20/2
f 54/20/5 55/19/5 56/53/5 53/56/5
f 57/72/1 59/22/1 63/73/1 61/74/1
f 73/75/2 72/76/2 70/77/2 76/78/2
f 61/79/2 63/80/2 74/73/2 75/74/2
f 70/77/3 72/76/3 67/81/3 66/82/3
f 59/83/4 57/84/4 79/72/4 77/22/4
f 80/85/4 66/82/4 67/81/4 78/43/4
f 78/86/1 73/87/1 81/88/1 84/89/1
f 63/73/5 59/22/5 77/90/5 74/91/5
f 73/92/5 78/93/5 67/81/5 72/76/5
f 58/94/4 60/95/4 64/44/4 62/96/4
f 74/80/1 71/97/1 69/98/1 75/79/1
f 62/96/1 64/44/1 77/99/1 79/100/1
f 69/101/2 71/23/2 68/102/2 65/103/2
f 60/95/3 58/94/3 80/85/3 78/43/3
f 76/78/3 65/101/3 68/23/3 73/75/3
f 69/35/6 65/104/6 76/105/6 75/38/6
f 58/106/6 62/41/6 79/107/6 80/108/6
f 77/109/5 64/95/5 60/44/5 78/110/5
f 73/111/5 68/102/5 71/23/5 74/112/5
f 57/113/6 61/48/6 75/38/6 79/107/6
f 80/107/6 79/38/6 75/105/6 76/108/6
f 70/37/6 66/114/6 80/108/6 76/105/6
f 73/115/4 74/116/4 82/88/4 81/117/4
f 74/18/3 77/118/3 83/119/3 82/117/3
f 77/120/2 78/121/2 84/119/2 83/89/2
f 82/89/5 83/88/5 84/117/5 81/119/5
f 85/122/1 87/123/1 91/16/1 89/66/1
f 101/124/2 100/3/2 98/60/2 104/125/2
f 89/66/2 91/16/2 102/27/2 103/68/2
f 98/60/3 100/3/3 95/126/3 94/127/3
f 87/123/4 85/122/4 107/128/4 105/129/4
f 108/130/4 94/127/4 95/126/4 106/131/4
f 106/86/1 101/87/1 109/88/1 112/89/1
f 91/16/5 87/123/5 105/76/5 102/81/5
f 101/22/5 106/73/5 95/126/5 100/3/5
f 86/132/4 88/133/4 92/26/4 90/67/4
f 102/131/1 99/134/1 97/135/1 103/130/1
f 90/67/1 92/136/1 105/137/1 107/71/1
f 97/135/2 99/138/2 96/6/2 93/61/2
f 88/133/3 86/132/3 108/68/3 106/27/3
f 104/128/3 93/61/3 96/6/3 101/129/3
f 97/106/6 93/41/6 104/107/6 103/108/6
f 86/35/6 90/104/6 107/105/6 108/38/6
f 105/44/5 92/26/5 88/133/5 106/95/5
f 101/23/5 96/6/5 99/138/5 102/102/5
f 85/37/6 89/114/6 103/108/6 107/105/6
f 108/38/6 107/105/6 103/108/6 104/107/6
f 98/113/6 94/48/6 108/38/6 104/107/6
f 109/89/5 110/88/5 111/117/5 112/119/5
f 101/116/4 102/115/4 110/117/4 109/88/4
f 102/18/3 105/118/3 111/119/3 110/117/3
f 105/121/2 106/120/2 112/89/2 111/119/2
f 113/139/1 115/2/1 119/3/1 117/140/1
f 129/5/2 128/6/2 126/141/2 132/142/2
f 117/143/2 119/10/2 130/3/2 131/140/2
f 126/141/3 128/6/3 123/11/3 122/144/3
f 115/13/4 113/145/4 135/139/4 133/2/4
f 136/146/4 122/144/4 123/11/4 134/16/4
f 134/17/1 129/18/1 137/19/1 140/20/1
f 119/3/5 115/2/5 133/21/5 130/22/5
f 129/23/5 134/24/5 123/11/5 128/6/5
f 114/147/4 116/26/4 120/27/4 118/148/4
f 130/29/1 127/5/1 125/142/1 131/149/1
f 118/146/1 120/16/1 133/27/1 135/148/1
f 125/149/2 127/29/2 124/31/2 121/150/2
f 116/33/3 114/151/3 136/147/3 134/26/3
f 132/150/3 121/143/3 124/10/3 129/31/3
f 125/35/6 121/36/6 132/37/6 131/38/6
f 114/39/6 118/40/6 135/41/6 136/42/6
f 133/43/5 120/27/5 116/26/5 134/44/5
f 129/45/5 124/31/5 127/29/5 130/46/5
f 113/47/6 117/48/6 131/38/6 135/41/6
f 136/41/6 135/38/6 131/37/6 132/42/6
f 126/49/6 122/50/6 136/42/6 132/37/6
f 129/51/4 130/52/4 138/19/4 137/53/4
f 130/54/3 133/55/3 139/56/3 138/53/3
f 133/57/2 134/58/2 140/56/2 139/20/2
f 138/20/5 139/19/5 140/53/5 137/56/5
g flame_Cube.013
v -0.115305 -0.323206 0.101070
v 0.001749 -0.323206 -0.015984
v -0.115305 -0.113092 0.101070
v 0.001749 -0.113092 -0.015984
v -0.115305 -0.323206 -0.015984
v 0.001749 -0.323206 0.101070
v -0.115305 -0.113092 -0.015984
v 0.001749 -0.113092 0.101070
v 0.366715 -0.205701 0.185402
v 0.264567 -0.205701 0.083254
v 0.366715 -0.016668 0.185402
v 0.264567 -0.016668 0.083254
v 0.264567 -0.205701 0.185402
v 0.366715 -0.205701 0.083254
v 0.264567 -0.016668 0.185402
v 0.366715 -0.016668 0.083254
v -0.383399 -0.106647 0.377605
v -0.306187 -0.106647 0.300393
v -0.383399 0.047122 0.377605
v -0.306187 0.047122 0.300393
v -0.383399 -0.106647 0.300393
v -0.306187 -0.106647 0.377605
v -0.383399 0.047122 0.300393
v -0.306187 0.047122 0.377605
v -0.347449 -0.197995 -0.307006
v -0.262777 -0.197995 -0.222334
v -0.347449 -0.197995 -0.222334
v -0.262777 -0.197995 -0.307006
v -0.347449 -0.033675 -0.307006
v -0.262777 -0.033675 -0.222334
v -0.347449 -0.033675 -0.222334
v -0.262777 -0.033675 -0.307006
v 0.173114 -0.277452 -0.282499
v 0.074143 -0.277452 -0.381470
v 0.173115 -0.277452 -0.381470
v 0.074143 -0.277452 -0.282499
v 0.173115 -0.092909 -0.282499
v 0.074144 -0.092909 -0.381471
v 0.173115 -0.092909 -0.381471
v 0.074143 -0.092909 -0.282499
vn 0.7071 -0.0000 0.7071
vn -0.7071 -0.0000 0.7071
vn -0.7071 -0.0000 -0.7071
vn 0.7071 -0.0000 -0.7071
vt 0.000000 0.000000
vt 1.000000 0.000000
vt 1.000000 1.000000
vt 0.000000 1.000000
s 0
usemtl flame
f 141/152/7 142/153/7 144/154/7 143/155/7
f 145/152/8 146/153/8 148/154/8 147/155/8
f 150/152/8 149/153/8 151/154/8 152/155/8
f 154/152/9 153/153/9 155/154/9 156/155/9
f 158/152/9 157/153/9 159/154/9 160/155/9
f 162/152/10 161/153/10 163/154/10 164/155/10
f 168/152/9 167/153/9 171/154/9 172/155/9
f 166/152/10 165/153/10 169/154/10 170/155/10
f 176/152/7 175/153/7 179/154/7 180/155/7
f 174/152/8 173/153/8 177/154/8 178/155/8
